lubridate
…
Question 1:

Generate a sequence of dates from January 1, 2015 to December 31, 2025, spaced by every two months. Extract the year, quarter, and ISO week number for each date.

sequence <- seq(mdy("01-01-2015"), mdy("12-31-2025"), by = "2 months")

sequence %>%
  map(~tibble(date = .x,
              year = year(.x),
              quarter = quarter(.x),
              ISOweek = isoweek(.x))) %>%
  list_rbind()

# A tibble: 66 × 4
   date        year quarter ISOweek
   <date>     <dbl>   <int>   <dbl>
 1 2015-01-01  2015       1       1
 2 2015-03-01  2015       1       9
 3 2015-05-01  2015       2      18
 4 2015-07-01  2015       3      27
 5 2015-09-01  2015       3      36
 6 2015-11-01  2015       4      44
 7 2016-01-01  2016       1      53
 8 2016-03-01  2016       1       9
 9 2016-05-01  2016       2      17
10 2016-07-01  2016       3      26
# ℹ 56 more rows
…
